# Blender v2.77 (sub 0) OBJ File: 'brace.blend'
# www.blender.org
mtllib brace.mtl
o Cube
v -0.500000 -0.500000 -4.000000
v 0.500000 -0.500000 -4.000000
v 0.500000 -0.500000 4.000000
v -0.500000 -0.500000 3.999998
v -0.500000 0.500000 -4.000002
v 0.500000 0.500000 -3.999998
v 0.500000 0.500000 4.000001
v -0.500000 0.500000 4.000000
v -0.500000 0.500000 2.307214
v 0.500000 0.500000 2.307216
v 0.500000 -0.500000 2.307215
v -0.000000 -0.500000 2.307214
v -0.000000 0.500000 2.307215
v -0.500000 0.000000 2.307214
v 0.500000 0.000000 2.307215
v -0.000000 0.000000 4.000000
v 0.000000 0.000000 -4.000000
v -0.500000 0.000000 3.999999
v 0.500000 0.000000 4.000001
v 0.500000 0.000000 -3.999999
v -0.500000 0.000000 -4.000001
v -0.000000 0.500000 4.000000
v -0.500000 -0.500000 2.307213
v 0.000000 0.500000 -4.000000
v -0.000000 -0.500000 4.000000
v 0.000000 -0.500000 -4.000000
v -0.500000 -0.500000 0.614785
v -0.500000 0.500000 0.614785
v 0.500000 0.000000 0.614787
v 0.000000 0.500000 0.614786
v 0.500000 0.500000 0.614788
v -0.500000 0.000000 0.614785
v 0.500000 -0.500000 0.614786
v -0.000000 -0.500000 0.614786
v -0.500000 -0.500000 1.083823
v 0.500000 0.500000 1.083826
v -0.500000 0.000000 1.083823
v 0.500000 -0.500000 1.083824
v -0.000000 -0.500000 1.083824
v 0.500000 0.000000 1.083825
v 0.000000 0.500000 1.083824
v -0.411848 0.375350 1.071177
v -0.500000 0.500000 -1.957542
v 0.500000 0.165833 -2.525537
v 0.000000 0.500000 -1.957540
v -0.500000 -0.500000 -1.957541
v 0.500000 0.500000 -2.084427
v -0.500000 0.000000 -1.957541
v 0.500000 -0.500000 -1.957541
v 0.000000 -0.500000 -1.957541
v -0.500000 0.500000 -1.308633
v -0.388731 -0.373333 -1.325562
v 0.500000 0.242839 -1.495028
v -0.500000 0.000000 -1.308633
v 0.500000 -0.500000 -1.479719
v 0.000000 -0.500000 -1.308632
v 0.465972 0.133405 -1.495769
v 0.000000 0.500000 -1.467330
v -0.500000 0.500000 -0.728747
v -0.500000 -0.500000 -0.728746
v 0.500000 0.500000 -0.728743
v -0.500000 0.000000 -0.728746
v 0.500000 -0.500000 -0.728745
v 0.000000 -0.500000 -0.728745
v 0.500000 0.165833 -0.728744
v 0.000000 0.500000 -0.728745
v 0.500000 0.500000 -1.446137
v 0.500000 0.028893 -1.498089
v 0.500000 0.000000 3.290852
v -0.000000 0.500000 3.290852
v -0.500000 0.000000 3.290850
v -0.000000 -0.500000 3.290851
v 0.500000 -0.500000 3.290851
v 0.500000 0.500000 3.290853
v -0.500000 0.500000 3.290850
v -0.500000 -0.500000 3.290850
v 0.500000 -0.244719 2.808757
v -0.000000 0.500000 2.808757
v -0.500000 0.000000 2.808755
v 0.271601 -0.500000 2.808756
v 0.397150 -0.410208 2.790452
v 0.500000 0.500000 2.808758
v -0.500000 0.500000 2.808756
v -0.500000 -0.500000 2.808755
vt 0.1749 0.5287
vt 0.1749 0.5909
vt 0.1126 0.5909
vt 0.1126 0.5287
vt 0.0629 0.1811
vt 0.0358 0.1813
vt 0.0357 0.1623
vt 0.0622 0.1623
vt 0.1126 0.6531
vt 0.0504 0.6531
vt 0.0504 0.5909
vt 0.0630 0.2385
vt 0.0360 0.2386
vt 0.0359 0.2195
vt 0.0630 0.2195
vt 0.1134 0.4235
vt 0.1134 0.3612
vt 0.1756 0.3612
vt 0.1756 0.4235
vt 0.0632 0.2574
vt 0.0362 0.2577
vt 0.1491 0.2022
vt 0.1010 0.2008
vt 0.1015 0.1816
vt 0.1489 0.1825
vt 0.1488 0.1438
vt 0.1489 0.1629
vt 0.1028 0.1629
vt 0.1020 0.1441
vt 0.1003 0.2200
vt 0.1493 0.2227
vt 0.0997 0.2383
vt 0.1487 0.1247
vt 0.1019 0.1249
vt 0.0511 0.4857
vt 0.0511 0.4235
vt 0.1134 0.4857
vt 0.0641 0.1244
vt 0.0635 0.1437
vt 0.0361 0.1428
vt 0.0367 0.1235
vt 0.1756 0.4857
vt 0.0511 0.3612
vt 0.1493 0.2531
vt 0.1493 0.2732
vt 0.1013 0.2758
vt 0.1005 0.2565
vt 0.0630 0.2003
vt 0.0359 0.2004
vt 0.0504 0.5287
vt 0.0635 0.2765
vt 0.0364 0.2768
vt 0.1749 0.6531
vt 0.2184 0.2195
vt 0.1684 0.2205
vt 0.1674 0.2016
vt 0.2185 0.2006
vt 0.2184 0.1878
vt 0.1671 0.1823
vt 0.1669 0.1629
vt 0.2183 0.1624
vt 0.2183 0.2387
vt 0.2179 0.2579
vt 0.1682 0.2555
vt 0.1705 0.2381
vt 0.2172 0.2768
vt 0.1669 0.2741
vt 0.2180 0.1241
vt 0.2182 0.1432
vt 0.1668 0.1437
vt 0.1666 0.1246
vt 0.9430 0.3201
vt 0.8658 0.3484
vt 0.8851 0.3048
vt 0.7380 0.2527
vt 0.8970 0.2527
vt 0.3442 0.2006
vt 0.2704 0.2006
vt 0.2874 0.1878
vt 0.3442 0.1813
vt 0.3441 0.1428
vt 0.3442 0.1620
vt 0.2655 0.1622
vt 0.2654 0.1430
vt 0.3443 0.2393
vt 0.2654 0.2391
vt 0.2655 0.2198
vt 0.3443 0.2200
vt 0.3441 0.1235
vt 0.2654 0.1237
vt 0.3442 0.2586
vt 0.3442 0.2779
vt 0.2653 0.2778
vt 0.2653 0.2585
vt 0.7418 0.7282
vt 0.8373 0.7322
vt 0.8360 0.7464
vt 0.2471 0.1623
vt 0.2404 0.1431
vt 0.2404 0.2390
vt 0.2467 0.2198
vt 0.8490 0.4427
vt 0.8736 0.4015
vt 0.9165 0.4890
vt 0.2402 0.2584
vt 0.8387 0.7185
vt 0.2478 0.1907
vt 0.2459 0.2006
vt 0.7836 0.4015
vt 0.8196 0.4837
vt 0.9648 0.7464
vt 0.2479 0.1825
vt 0.0822 0.1559
vt 0.0814 0.2196
vt 0.0816 0.2004
vt 0.0815 0.2571
vt 0.0820 0.2762
vt 0.0820 0.1704
vt 0.0826 0.1249
vt 0.0812 0.2384
vt 0.8022 0.5946
vt 0.8639 0.6136
vt 0.8544 0.6359
vt 0.9237 0.6331
vt 0.8675 0.5946
vn 0.0000 -0.0000 -1.0000
vn 1.0000 0.0000 0.0000
vn 0.0000 1.0000 0.0000
vn -0.0000 -0.0000 1.0000
vn -1.0000 0.0000 -0.0000
vn 0.0000 -1.0000 0.0000
vn -0.9421 0.2295 0.2446
vn -0.9701 0.2247 -0.0918
vn -0.2846 0.9094 0.3033
vn -0.2844 0.9516 -0.1163
vn 0.9545 -0.2966 -0.0298
vn -0.9317 -0.2877 0.2217
vn 0.9491 0.3102 -0.0552
vn -0.9352 -0.2682 -0.2313
vn -0.3102 -0.9201 0.2390
vn -0.2901 -0.9237 -0.2501
vn 0.9546 -0.2970 0.0222
vn 0.9503 0.3085 0.0411
vn 0.8329 -0.4890 -0.2590
vn 0.8042 -0.5296 0.2696
vn 0.5861 -0.7650 0.2669
vn 0.5377 -0.8037 -0.2547
usemtl Material
s off
f 1/1/1 21/2/1 17/3/1 26/4/1
f 69/5/2 19/6/2 3/7/2 73/8/2
f 17/3/1 24/9/1 6/10/1 20/11/1
f 75/12/3 8/13/3 22/14/3 70/15/3
f 16/16/4 22/17/4 8/18/4 18/19/4
f 75/12/5 71/20/5 18/21/5 8/13/5
f 36/22/2 10/23/2 15/24/2 40/25/2
f 39/26/6 38/27/6 11/28/6 12/29/6
f 13/30/3 41/31/3 9/32/3
f 35/33/6 39/26/6 12/29/6 23/34/6
f 3/35/4 19/36/4 16/16/4 25/37/4
f 76/38/6 72/39/6 25/40/6 4/41/6
f 25/37/4 16/16/4 18/19/4 4/42/4
f 19/36/4 7/43/4 22/17/4 16/16/4
f 37/44/5 35/45/5 23/46/5 14/47/5
f 14/47/5 9/32/5 37/44/5
f 74/48/2 7/49/2 19/6/2 69/5/2
f 26/4/1 17/3/1 20/11/1 2/50/1
f 40/25/2 15/24/2 11/28/2 38/27/2
f 71/20/5 76/51/5 4/52/5 18/21/5
f 41/31/3 13/30/3 10/23/3 36/22/3
f 21/2/1 5/53/1 24/9/1 17/3/1
f 70/15/3 22/14/3 7/49/3 74/48/3
f 72/39/6 73/8/6 3/7/6 25/40/6
f 66/54/3 30/55/3 31/56/3 61/57/3
f 65/58/2 29/59/2 33/60/2 63/61/2
f 59/62/5 62/63/5 32/64/5 28/65/5
f 62/63/5 60/66/5 27/67/5 32/64/5
f 60/68/6 64/69/6 34/70/6 27/71/6
f 59/62/3 28/65/3 30/55/3 66/54/3
f 64/69/6 63/61/6 33/60/6 34/70/6
f 61/57/2 31/56/2 29/59/2 65/58/2
f 30/55/3 41/31/3 36/22/3 31/56/3
f 29/59/2 40/25/2 38/27/2 33/60/2
f 28/65/5 32/64/5 37/44/5
f 32/64/5 27/67/5 35/45/5 37/44/5
f 27/71/6 34/70/6 39/26/6 35/33/6
f 30/55/3 28/65/3 41/31/3
f 34/70/6 33/60/6 38/27/6 39/26/6
f 31/56/2 36/22/2 40/25/2 29/59/2
f 28/72/7 37/73/7 42/74/7
f 37/73/8 9/75/8 42/74/8
f 28/72/9 42/74/9 41/76/9
f 41/76/10 42/74/10 9/75/10
f 6/77/2 47/78/2 44/79/2 20/80/2
f 26/81/6 2/82/6 49/83/6 50/84/6
f 5/85/3 43/86/3 45/87/3 24/88/3
f 1/89/6 26/81/6 50/84/6 46/90/6
f 21/91/5 1/92/5 46/93/5 48/94/5
f 5/85/5 21/91/5 48/94/5 43/86/5
f 20/80/2 44/79/2 49/83/2 2/82/2
f 24/88/3 45/87/3 47/78/3 6/77/3
f 65/95/11 57/96/11 53/97/11
f 50/84/6 49/83/6 55/98/6 56/99/6
f 43/86/3 51/100/3 58/101/3 45/87/3
f 52/102/12 54/103/12 46/104/12
f 43/86/5 48/94/5 54/105/5 51/100/5
f 57/96/13 65/95/13 68/106/13
f 53/107/2 67/108/2 61/57/2
f 65/58/2 53/107/2 61/57/2
f 56/99/6 55/98/6 63/61/6 64/69/6
f 51/100/3 59/62/3 66/54/3 58/101/3
f 48/94/5 46/93/5 54/105/5
f 51/100/5 54/105/5 62/63/5 59/62/5
f 65/58/2 63/61/2 55/98/2
f 58/101/3 66/54/3 61/57/3
f 62/63/5 54/105/5 60/66/5
f 60/109/14 54/103/14 52/102/14
f 46/90/6 50/84/6 56/99/6
f 52/102/15 46/104/15 56/110/15
f 60/109/16 52/102/16 56/110/16
f 56/99/6 64/69/6 60/68/6
f 44/111/17 53/97/17 57/96/17
f 44/79/2 47/78/2 53/107/2
f 49/83/2 44/79/2 55/98/2
f 44/111/18 57/96/18 68/106/18
f 58/101/3 67/108/3 47/78/3
f 58/101/3 47/78/3 45/87/3
f 61/57/3 67/108/3 58/101/3
f 53/107/2 47/78/2 67/108/2
f 55/98/2 68/112/2 65/58/2
f 68/112/2 55/98/2 44/79/2
f 12/29/6 11/28/6 80/113/6
f 78/114/3 70/15/3 74/48/3 82/115/3
f 79/116/5 84/117/5 76/51/5 71/20/5
f 82/115/2 74/48/2 69/5/2 77/118/2
f 84/119/6 80/113/6 72/39/6 76/38/6
f 83/120/5 79/116/5 71/20/5 75/12/5
f 83/120/3 75/12/3 70/15/3 78/114/3
f 73/121/19 81/122/19 77/123/19
f 73/8/2 77/118/2 69/5/2
f 9/32/3 83/120/3 78/114/3 13/30/3
f 9/32/5 14/47/5 79/116/5 83/120/5
f 23/34/6 12/29/6 80/113/6 84/119/6
f 10/23/2 82/115/2 77/118/2 15/24/2
f 14/47/5 23/46/5 84/117/5 79/116/5
f 13/30/3 78/114/3 82/115/3 10/23/3
f 72/39/6 80/113/6 73/8/6
f 15/24/2 77/118/2 11/28/2
f 11/124/20 77/123/20 81/122/20
f 81/122/21 80/125/21 11/124/21
f 73/121/22 80/125/22 81/122/22
