# Blender v2.77 (sub 0) OBJ File: 'fire_mesh_2.blend'
# www.blender.org
mtllib fire_mesh_2.mtl
o Cone
v -0.000000 -0.626448 -0.853838
v -0.000000 1.081227 -0.000000
v 0.812048 -0.626448 -0.263850
v 0.501873 -0.626448 0.690769
v -0.501873 -0.626448 0.690769
v -0.812048 -0.626448 -0.263850
vn 0.5449 0.3750 -0.7500
vn 0.8817 0.3750 0.2865
vn -0.0000 0.3750 0.9270
vn -0.8817 0.3750 0.2865
vn -0.5449 0.3750 -0.7500
vn 0.0000 -1.0000 0.0000
usemtl None
s off
f 1//1 2//1 3//1
f 3//2 2//2 4//2
f 4//3 2//3 5//3
f 5//4 2//4 6//4
f 6//5 2//5 1//5
f 1//6 3//6 4//6 5//6 6//6
