# Blender v2.77 (sub 0) OBJ File: 'spear_default.blend'
# www.blender.org
mtllib spear_default.mtl
o Cylinder_Cylinder.001
v 0.000000 0.146019 -3.842075
v 0.000000 0.146019 2.375139
v 0.126456 0.073009 -3.842075
v 0.126456 0.073009 2.375139
v 0.126456 -0.073009 -3.842075
v 0.126456 -0.073009 2.375139
v -0.000000 -0.146018 -3.842075
v -0.000000 -0.146019 2.375139
v -0.126456 -0.073009 -3.842075
v -0.126456 -0.073009 2.375139
v -0.126456 0.073009 -3.842075
v -0.126456 0.073009 2.375139
v 0.000000 0.223706 2.375139
v 0.193735 0.111853 2.375139
v 0.193735 -0.111853 2.375139
v -0.000000 -0.223706 2.375139
v -0.193735 -0.111853 2.375139
v -0.193735 0.111853 2.375139
v 0.000000 0.223706 2.520042
v 0.193735 0.111853 2.520042
v 0.193735 -0.111853 2.520042
v -0.000000 -0.223706 2.520042
v -0.193735 -0.111853 2.520042
v -0.193735 0.111853 2.520042
v -0.000000 0.120920 2.520040
v -0.000000 0.120920 2.732254
v 0.056605 0.060460 2.520040
v 0.056605 0.060460 2.732254
v 0.056605 -0.060460 2.520040
v 0.056605 -0.060460 2.732254
v -0.000000 -0.120921 2.520040
v -0.000000 -0.120921 2.732254
v -0.056605 -0.060460 2.520040
v -0.056605 -0.060460 2.732254
v -0.056605 0.060460 2.520040
v -0.056605 0.060460 2.732254
v -0.000000 0.286592 2.933735
v 0.134158 0.143296 2.933735
v 0.134158 -0.143296 2.933735
v -0.000000 -0.286592 2.933735
v -0.134158 -0.143296 2.933735
v -0.134158 0.143296 2.933735
v -0.000000 0.182829 4.110027
v 0.085585 0.091414 4.110027
v 0.085585 -0.091415 4.110027
v -0.000000 -0.182829 4.110027
v -0.085585 -0.091415 4.110027
v -0.085585 0.091414 4.110027
v -0.000000 -0.000000 4.533656
vt 0.1777 0.5614
vt 0.1777 0.8292
vt 0.1576 0.8292
vt 0.1576 0.5614
vt 0.1375 0.8292
vt 0.1375 0.5614
vt 0.1174 0.8292
vt 0.1174 0.5614
vt 0.0973 0.8292
vt 0.0973 0.5614
vt 0.9453 0.4488
vt 0.9250 0.4371
vt 0.9250 0.4246
vt 0.9561 0.4426
vt 0.0772 0.8292
vt 0.0772 0.5614
vt 0.0571 0.8292
vt 0.0571 0.5614
vt 0.9417 0.3616
vt 0.9299 0.3819
vt 0.9065 0.3819
vt 0.8947 0.3616
vt 0.9065 0.3412
vt 0.9299 0.3412
vt 0.8388 0.6072
vt 0.8580 0.6072
vt 0.8580 0.6305
vt 0.8388 0.6305
vt 0.9046 0.4488
vt 0.9046 0.4723
vt 0.8938 0.4785
vt 0.8938 0.4426
vt 0.9250 0.4840
vt 0.9453 0.4723
vt 0.9561 0.4785
vt 0.9250 0.4965
vt 0.9427 0.2345
vt 0.9344 0.2565
vt 0.9150 0.2565
vt 0.9067 0.2345
vt 0.8772 0.6072
vt 0.8964 0.6072
vt 0.8964 0.6305
vt 0.8772 0.6305
vt 0.9155 0.6072
vt 0.9347 0.6072
vt 0.9347 0.6305
vt 0.9155 0.6305
vt 0.8197 0.6072
vt 0.8197 0.6305
vt 0.8916 0.6675
vt 0.8920 0.6992
vt 0.8794 0.6999
vt 0.8792 0.6677
vt 0.8606 0.7010
vt 0.8619 0.6675
vt 0.8467 0.6995
vt 0.8501 0.6667
vt 0.8335 0.6959
vt 0.8393 0.6651
vt 0.8155 0.6914
vt 0.8233 0.6618
vt 0.8045 0.6869
vt 0.8127 0.6589
vt 0.8883 0.5332
vt 0.8786 0.5423
vt 0.8592 0.5423
vt 0.8495 0.5331
vt 0.8592 0.5240
vt 0.8786 0.5241
vt 0.8565 0.7314
vt 0.8401 0.7312
vt 0.7991 0.7160
vt 0.7785 0.7092
vt 0.8248 0.7252
vt 0.8859 0.7319
vt 0.9087 0.7332
vt 0.8485 0.8406
vt 0.8326 0.8321
vt 0.8103 0.8277
vt 0.7924 0.8293
vt 0.8218 0.8279
vt 0.8603 0.8485
vt 0.7785 0.8321
vt 0.8126 0.8741
vt 0.9607 0.2656
vt 0.9442 0.2656
vt 0.9427 0.2968
vt 0.9344 0.2747
vt 0.9067 0.2968
vt 0.9150 0.2747
vt 0.8887 0.2656
vt 0.9053 0.2656
vn 0.5000 0.8660 0.0000
vn 1.0000 0.0000 0.0000
vn 0.5000 -0.8660 -0.0000
vn -0.5000 -0.8660 -0.0000
vn -0.0000 0.0000 -1.0000
vn -1.0000 0.0000 0.0000
vn -0.5000 0.8660 0.0000
vn -0.0000 0.0000 1.0000
vn 0.7300 0.6834 0.0000
vn 0.7300 -0.6834 0.0000
vn -0.7300 -0.6834 -0.0000
vn -0.7300 0.6834 0.0000
vn 0.6364 -0.5958 -0.4899
vn -0.6364 0.5958 -0.4899
vn -0.6364 -0.5958 -0.4899
vn 0.9333 -0.0000 -0.3592
vn -0.9333 0.0000 -0.3592
vn 0.6364 0.5958 -0.4899
vn 0.9991 -0.0000 0.0413
vn -0.9991 0.0000 0.0413
vn 0.7287 -0.6822 0.0602
vn 0.7287 0.6822 0.0602
vn -0.7287 0.6822 0.0602
vn -0.7287 -0.6822 0.0602
vn 0.7002 0.6555 0.2829
vn -0.7002 0.6555 0.2829
vn -0.7002 -0.6555 0.2829
vn 0.9802 -0.0000 0.1980
vn -0.9802 0.0000 0.1980
vn 0.7002 -0.6555 0.2829
usemtl None
s off
f 1/1/1 2/2/1 4/3/1 3/4/1
f 3/4/2 4/3/2 6/5/2 5/6/2
f 5/6/3 6/5/3 8/7/3 7/8/3
f 7/8/4 8/7/4 10/9/4 9/10/4
f 2/11/5 12/12/5 18/13/5 13/14/5
f 9/10/6 10/9/6 12/15/6 11/16/6
f 11/16/7 12/15/7 2/17/7 1/18/7
f 1/19/5 3/20/5 5/21/5 7/22/5 9/23/5 11/24/5
f 18/25/6 17/26/6 23/27/6 24/28/6
f 10/29/5 8/30/5 16/31/5 17/32/5
f 6/33/5 4/34/5 14/35/5 15/36/5
f 12/12/5 10/29/5 17/32/5 18/13/5
f 4/34/5 2/11/5 13/14/5 14/35/5
f 8/30/5 6/33/5 15/36/5 16/31/5
f 20/37/8 27/38/8 29/39/8 21/40/8
f 16/41/3 15/42/3 21/43/3 22/44/3
f 14/45/1 13/46/1 19/47/1 20/48/1
f 13/49/7 18/25/7 24/28/7 19/50/7
f 17/26/4 16/41/4 22/44/4 23/27/4
f 15/42/2 14/45/2 20/48/2 21/43/2
f 25/51/9 26/52/9 28/53/9 27/54/9
f 27/54/2 28/53/2 30/55/2 29/56/2
f 29/56/10 30/55/10 32/57/10 31/58/10
f 31/58/11 32/57/11 34/59/11 33/60/11
f 33/60/6 34/59/6 36/61/6 35/62/6
f 35/62/12 36/61/12 26/63/12 25/64/12
f 25/65/5 27/66/5 29/67/5 31/68/5 33/69/5 35/70/5
f 32/57/13 30/55/13 39/71/13 40/72/13
f 26/63/14 36/61/14 42/73/14 37/74/14
f 34/59/15 32/57/15 40/72/15 41/75/15
f 30/55/16 28/53/16 38/76/16 39/71/16
f 36/61/17 34/59/17 41/75/17 42/73/17
f 28/53/18 26/52/18 37/77/18 38/76/18
f 39/71/19 38/76/19 44/78/19 45/79/19
f 42/73/20 41/75/20 47/80/20 48/81/20
f 40/72/21 39/71/21 45/79/21 46/82/21
f 38/76/22 37/77/22 43/83/22 44/78/22
f 37/74/23 42/73/23 48/81/23 43/84/23
f 41/75/24 40/72/24 46/82/24 47/80/24
f 44/78/25 43/83/25 49/85/25
f 43/84/26 48/81/26 49/85/26
f 47/80/27 46/82/27 49/85/27
f 45/79/28 44/78/28 49/85/28
f 48/81/29 47/80/29 49/85/29
f 46/82/30 45/79/30 49/85/30
f 27/38/8 20/37/8 19/86/8 25/87/8
f 25/87/8 19/86/8 24/88/8 35/89/8
f 35/89/8 24/88/8 23/90/8 33/91/8
f 33/91/8 23/90/8 22/92/8 31/93/8
f 31/93/8 22/92/8 21/40/8 29/39/8
